module github.com/eclipse-kanto/kanto/integration/c2esetup

go 1.17

require (
	github.com/eclipse/paho.mqtt.golang v1.4.1
	github.com/google/uuid v1.3.0
)

require (
	github.com/gorilla/websocket v1.4.2 // indirect
	golang.org/x/net v0.0.0-20200425230154-ff2c4b7c35a0 // indirect
	golang.org/x/sync v0.0.0-20210220032951-036812b2e83c // indirect
)
